2.585985345458984170e+02
2.811404180526733398e+01
1.769293506622314283e+01
1.571144913673400900e+01
1.436857585906982493e+01
1.308252113342285128e+01
1.219946934700012164e+01
1.128366757392883279e+01
1.056388322830200188e+01
1.006886778831481877e+01
9.474228496551512890e+00
9.129760990142822052e+00
8.825697655677794629e+00
8.465605807304381614e+00
8.303924174308777495e+00
8.076400470733641868e+00
7.913107113838195872e+00
7.761994647979736150e+00
7.593169817924499299e+00
7.503850774765014719e+00
7.438728652000427211e+00
7.289616050720215235e+00
7.001713738441467605e+00
6.864031972885132227e+00
6.759381251335144114e+00
6.721328554153441992e+00
6.696723785400390483e+00
6.669142827987671218e+00
6.633687267303466584e+00
6.563672409057617507e+00
6.547669415473937882e+00
6.511099510192870810e+00
6.456805553436279155e+00
6.499254369735718129e+00
6.377654719352721990e+00
6.370586919784545721e+00
6.356880874633788814e+00
6.443218960762023606e+00
6.448683323860168848e+00
6.229319829940795472e+00
6.292603135108947754e+00
6.141763963699340856e+00
6.107353062629699458e+00
6.022990345954895020e+00
5.999450488090515066e+00
5.973648653030395828e+00
5.974117870330810653e+00
5.886189050674438761e+00
5.831768870353698730e+00
5.798947057723998988e+00
