2.678348953628540130e+02
2.892867069244384837e+01
1.799781345367431484e+01
1.608939246177673255e+01
1.489615965843200662e+01
1.388232061386108462e+01
1.282550652503967292e+01
1.208991330146789522e+01
1.125306002616882317e+01
1.072959164619445716e+01
1.018122628211975034e+01
9.847526550292968750e+00
9.529893970489501598e+00
9.170580806732177237e+00
8.911138300895691700e+00
8.818154792785644958e+00
8.519743032455444620e+00
8.465212683677673766e+00
8.271127438545226696e+00
8.025749359130859517e+00
8.047104439735413450e+00
7.916699042320251678e+00
7.843700323104858541e+00
7.992894296646118057e+00
7.765365138053893723e+00
7.340039148330688157e+00
7.409667959213257049e+00
7.257414360046386292e+00
7.216794176101684499e+00
7.087484889030456259e+00
6.980548253059387420e+00
6.955231046676635387e+00
6.948331804275512447e+00
6.994051642417907999e+00
6.823968143463134517e+00
6.804219813346862544e+00
6.760105905532836523e+00
6.737393274307250657e+00
6.712836303710937536e+00
6.677052335739135813e+00
6.702094564437865998e+00
6.611301050186157546e+00
6.567874579429626714e+00
6.634931650161743022e+00
6.616553859710693430e+00
6.562968926429748606e+00
6.573500032424926864e+00
6.550024399757385041e+00
6.493243308067321529e+00
6.497861933708191096e+00
