3.562921056747436523e+02
3.160047857284546069e+01
1.856488292694091768e+01
1.717482927322387809e+01
1.572108954429626415e+01
1.470429288864135664e+01
1.397920445442199622e+01
1.319524696350097592e+01
1.247185621261596644e+01
1.188067398071289027e+01
1.142039672851562493e+01
1.081577688217163136e+01
1.067653794288635183e+01
1.023196703910827665e+01
9.980082521438598420e+00
9.685563821792602113e+00
9.488736162185668732e+00
9.337951555252075764e+00
9.078615331649780629e+00
9.060802440643310973e+00
8.892165913581848713e+00
8.781191630363464284e+00
8.418825011253357360e+00
8.336263165473937420e+00
8.288930726051329856e+00
8.167593145370483754e+00
8.223992280960082724e+00
8.187100062370300080e+00
8.058046135902404927e+00
8.002055554389952974e+00
7.924747109413146973e+00
7.789844808578490820e+00
7.756814627647400151e+00
7.711678977012634384e+00
7.650791049003601074e+00
7.658352456092834437e+00
7.658686933517455664e+00
7.597388415336609135e+00
7.465875463485717844e+00
7.510446348190307653e+00
7.459272894859314107e+00
7.423580899238586106e+00
7.411089491844177424e+00
7.381857833862304652e+00
7.318806977272033443e+00
7.342890172004699956e+00
7.295665621757507324e+00
7.263766303062438645e+00
7.234310688972473535e+00
7.197640972137451243e+00
