6.028239196777343523e+01
2.481316459655761619e+01
1.992643863677978544e+01
1.640741859436035099e+01
1.657792331695556598e+01
1.415289249420166051e+01
1.381216953277587933e+01
1.420575397491455050e+01
1.180736930847167976e+01
1.139969955444335881e+01
1.141365312576293967e+01
1.093676046371459876e+01
1.073400028228759773e+01
1.014977428436279361e+01
1.039288187026977539e+01
1.226468523025512702e+01
9.895017433166504617e+00
9.598941173553466655e+00
9.489189023971556836e+00
9.123195705413818857e+00
9.486887111663818928e+00
9.874231815338134766e+00
8.752585325241089009e+00
8.801078186035155682e+00
9.677073707580566619e+00
8.889462242126464631e+00
8.702101507186888796e+00
8.569343395233154581e+00
8.847878484725951509e+00
8.680459508895873810e+00
8.489551095962523775e+00
8.445711841583252166e+00
8.603456115722655895e+00
8.242673044204712696e+00
8.498542470932006765e+00
8.291952695846557475e+00
8.482980604171752148e+00
8.201145677566527681e+00
8.228642368316650746e+00
8.290481004714965962e+00
8.176682472229003906e+00
8.513801307678223296e+00
8.153922367095947976e+00
8.400560770034790181e+00
8.049355583190918040e+00
8.176814937591553090e+00
8.058882360458374805e+00
8.002377300262450532e+00
8.035105047225952646e+00
7.998024997711181250e+00
