6.467145851135254020e+01
2.482438858032226392e+01
1.759911113739013544e+01
1.655632686614990234e+01
1.528545419692993157e+01
1.662394941329955955e+01
1.344811595916748104e+01
1.240116817474365263e+01
1.204670486450195277e+01
1.207023107528686445e+01
1.103923450469970646e+01
1.081915885925292997e+01
1.034820461273193359e+01
1.057083423614501960e+01
1.011906547546386648e+01
1.010850120544433572e+01
9.952977981567382670e+00
9.842542228698730966e+00
9.687887268066406321e+00
9.524949054718018004e+00
9.127453460693359943e+00
9.147019214630127237e+00
9.009798870086669353e+00
9.150534906387328249e+00
8.939688243865965944e+00
9.294791870117187216e+00
1.026562723159790025e+01
9.379611701965332671e+00
8.664324321746825319e+00
8.804499454498291300e+00
8.561224689483642791e+00
8.430171146392822834e+00
8.742318172454833558e+00
8.595522098541259481e+00
8.480572357177734943e+00
8.342518224716187092e+00
8.206425371170043448e+00
8.498417749404907795e+00
8.516635065078736133e+00
8.432406167984009215e+00
8.227244606018066619e+00
8.029625911712646058e+00
8.070962610244750479e+00
8.129445343017577486e+00
8.077350854873657227e+00
8.000136003494262127e+00
8.003273487091064453e+00
7.904996318817138601e+00
8.100263824462890838e+00
7.861760444641113565e+00
