2.884905096435546739e+02
2.785259393692016516e+01
1.852699243545532326e+01
1.671943654060363826e+01
1.556639699935913157e+01
1.445637243270873995e+01
1.347057138442993107e+01
1.254912882804870655e+01
1.178257468223571713e+01
1.147144861221313406e+01
1.079105611801147546e+01
1.035968345642089794e+01
1.000742312431335534e+01
9.881878938674926616e+00
9.601152763366698650e+00
9.297543792724608736e+00
9.106903357505798269e+00
8.922794723510742543e+00
8.720971684455872008e+00
8.639376115798949485e+00
8.524588670730590678e+00
8.476715569496155567e+00
8.073203454017638947e+00
8.025908050537109872e+00
7.934697608947754333e+00
7.941105852127074982e+00
7.905982499122619522e+00
7.751216025352477779e+00
7.766009745597838965e+00
7.725484657287597479e+00
7.581787915229797115e+00
7.680245161056518555e+00
7.637170128822326376e+00
7.426161537170409943e+00
7.344363899230956783e+00
7.336494746208191309e+00
7.326406230926513885e+00
7.310739002227783168e+00
7.269773049354553152e+00
7.180430417060851944e+00
7.221377682685852228e+00
7.219715900421142862e+00
7.086403155326843617e+00
7.079819388389587687e+00
7.070384750366210724e+00
6.897499704360962269e+00
6.961689543724060236e+00
6.965722479820251500e+00
6.910717296600341619e+00
6.910113906860351207e+00
